<svg width="39" viewBox="0 0 39 33" fill="none" xmlns="http://www.w3.org/2000/svg">
  <path d="M31.9756 24.2596C31.0931 24.583 29.5195 25.281 28.2031 25.881C28.7534 26.1678 29.3223 26.4174 29.906 26.6281C30.7459 26.9295 31.6374 27.0616 32.5288 27.0168H32.5387C33.6498 26.9585 34.158 26.0953 33.9925 25.2857C33.8627 24.6484 33.3346 24.1423 32.606 24.1423C32.3906 24.144 32.1772 24.1835 31.9756 24.2591" fill="#D5032B"/>
  <path d="M34.7082 19.5524C33.451 20.7565 30.4609 24.1919 30.4609 24.1919C30.4609 24.1919 34.7065 22.5319 36.2649 21.7534C37.2176 21.2777 37.3298 20.3234 36.8725 19.6767C36.7491 19.4972 36.5841 19.3501 36.3917 19.2477C36.1992 19.1453 35.9848 19.0906 35.7667 19.0884C35.4158 19.0884 35.0468 19.2285 34.7082 19.5524Z" fill="#D5032B"/>
  <path d="M35.7321 13.8909C35.0093 15.4732 33.5 19.7677 33.5 19.7677C33.5 19.7677 36.8333 16.6615 37.9929 15.3641C38.7023 14.5709 38.4537 13.6423 37.79 13.2098C37.5633 13.0597 37.2977 12.9786 37.0257 12.9763C36.5251 12.9763 36.0204 13.2582 35.7321 13.8886" fill="#D5032B"/>
  <path d="M34.4954 8.96554C34.4597 10.5274 34.7375 14.606 34.7375 14.606C34.7375 14.606 36.386 10.8642 36.8836 9.38285C37.1883 8.47702 36.6538 7.79881 35.9521 7.67624C35.8781 7.66346 35.8032 7.65702 35.7281 7.65698C35.1024 7.65698 34.5152 8.11223 34.4954 8.96554Z" fill="#D5032B"/>
  <path d="M32.3941 2.78344C31.6959 2.93344 31.1906 3.63266 31.5304 4.52565C32.0865 5.98479 33.8818 9.66183 33.8818 9.66183C33.8818 9.66183 33.9988 5.57624 33.9005 4.01671C33.8485 3.18791 33.2742 2.75659 32.6678 2.75659C32.5758 2.75645 32.484 2.76624 32.3941 2.78578" fill="#D5032B"/>
  <path d="M27.7826 0.19319C27.2294 0.554473 27.0224 1.3284 27.6148 1.98968C28.5832 3.07061 31.3638 5.66146 31.3638 5.66146C31.3638 5.66146 30.1024 2.07898 29.4984 0.758753C29.258 0.233462 28.8375 0 28.4229 0C28.196 0.00125284 27.9743 0.0683773 27.7849 0.19319" fill="#D5032B"/>
  <path d="M4.42573 25.2852C4.26082 26.0947 4.769 26.9597 5.8801 27.0163H5.89004C6.78125 27.061 7.67251 26.9289 8.51222 26.6276C9.09601 26.4169 9.66492 26.1674 10.2151 25.8805C8.89877 25.2805 7.32511 24.5824 6.44266 24.2591C6.24104 24.1835 6.02764 24.144 5.81226 24.1424C5.0842 24.1424 4.55614 24.6484 4.42573 25.2857V25.2852ZM1.54507 19.6768C1.08777 20.3235 1.20005 21.2778 2.15325 21.7534C3.71112 22.532 7.95668 24.192 7.95668 24.192C7.95668 24.192 4.96666 20.7566 3.70937 19.5525C3.37078 19.2286 3.00002 19.0885 2.65149 19.0885C2.4333 19.0907 2.21886 19.1454 2.02629 19.2478C1.83371 19.3502 1.66866 19.4973 1.54507 19.6768ZM0.62988 13.2099C-0.0338535 13.6424 -0.282388 14.571 0.427543 15.3642C1.58776 16.6616 4.91988 19.7678 4.91988 19.7678C4.91988 19.7678 3.41113 15.4733 2.69008 13.891C2.39769 13.2607 1.89477 12.9788 1.39478 12.9788C1.12252 12.9809 0.856761 13.062 0.62988 13.2122V13.2099ZM2.4702 7.67858C1.76846 7.80115 1.23396 8.47936 1.53864 9.38519C2.03629 10.8642 3.68422 14.606 3.68422 14.606C3.68422 14.606 3.96141 10.5274 3.92574 8.96554C3.90644 8.11224 3.31873 7.65698 2.69301 7.65698C2.61794 7.65704 2.54301 7.66349 2.46903 7.67625L2.4702 7.67858ZM4.51579 4.01439C4.41871 5.57392 4.5345 9.65951 4.5345 9.65951C4.5345 9.65951 6.33038 5.98598 6.88593 4.52333C7.22569 3.63034 6.71868 2.93112 6.02278 2.78112C5.93263 2.7619 5.84071 2.75212 5.74852 2.75194C5.1421 2.75194 4.56784 3.18326 4.51579 4.01205V4.01439ZM8.92333 0.758753C8.31924 2.07898 7.05844 5.66146 7.05844 5.66146C7.05844 5.66146 9.83852 3.07353 10.8069 1.9926C11.3993 1.33132 11.1929 0.557392 10.6397 0.196108C10.4501 0.0699391 10.2278 0.00177865 9.99992 0C9.58355 0 9.16309 0.233462 8.92216 0.758753" fill="#D5032B"/>
  <path d="M0.805114 30.5194C1.41702 30.6847 2.0374 30.817 2.66357 30.9157C3.25414 31.0038 3.85061 31.0467 4.44775 31.0441C6.05704 31.0402 7.65522 30.7779 9.18102 30.2672C10.312 29.8922 11.3981 29.3939 12.4196 28.7812C12.8681 28.532 13.9932 27.7511 15.2774 27.7505C15.4718 27.7511 15.6657 27.7706 15.8564 27.8089C16.3464 27.8906 17.6745 28.4264 18.2756 29.9929H20.1528C20.7545 28.4264 22.0826 27.8917 22.5721 27.8089C22.7627 27.7706 22.9566 27.7511 23.151 27.7505C24.4375 27.7505 25.5603 28.532 26.0088 28.7812C27.0305 29.3937 28.1165 29.892 29.2474 30.2672C30.7728 30.7777 32.3706 31.04 33.9795 31.0441C34.576 31.0467 35.1719 31.0037 35.7619 30.9157C36.3881 30.817 37.0085 30.6847 37.6204 30.5194L37.7993 31.0365C37.1646 31.2755 36.5134 31.4682 35.8508 31.6131C34.7693 31.854 33.6642 31.9733 32.5561 31.9686C31.3565 31.9721 30.1606 31.835 28.993 31.56C27.7625 31.2713 26.5684 30.8459 25.4328 30.2917C25.3018 30.2299 24.5907 29.8797 23.9931 29.7174C23.7643 29.6556 23.5284 29.6234 23.2913 29.6217C23.1378 29.6207 22.9847 29.6378 22.8352 29.6725C22.234 29.8528 21.9399 30.3729 21.7937 30.7878L22.0276 31.6131C22.1282 31.9668 21.9066 32.3328 21.5925 32.3328H16.833C16.5183 32.3328 16.2967 31.9668 16.3973 31.6131L16.6312 30.7861C16.4827 30.3694 16.1838 29.8522 15.5891 29.6725C15.4396 29.6378 15.2865 29.6207 15.133 29.6217C14.8959 29.6234 14.6601 29.6556 14.4312 29.7174C13.8353 29.8832 13.1242 30.2334 12.9932 30.2917C11.8585 30.845 10.6654 31.2699 9.43598 31.5583C8.2684 31.8332 7.07251 31.9703 5.87288 31.9668C4.76428 31.9722 3.65856 31.8535 2.57643 31.6131C1.91284 31.4683 1.26065 31.2755 0.625 31.0365L0.805114 30.5194Z" fill="#0F1E42"/>
  <path d="M22.618 24.5134C23.7794 24.5134 25.2244 24.8876 26.9787 25.9621C29.8799 27.7393 32.4898 28.0358 33.9073 28.0358C34.282 28.0412 34.6565 28.0164 35.0272 27.9617L36.7423 30.2239C36.419 30.2957 36.071 30.3652 35.7067 30.4212C35.1345 30.5061 34.5566 30.5472 33.9781 30.5443C32.4065 30.5388 30.8459 30.2826 29.3553 29.7856C28.2478 29.4185 27.1844 28.9301 26.1846 28.3294C26.129 28.2984 26.063 28.2593 25.9875 28.2126C25.4209 27.8759 24.3659 27.2496 23.1478 27.2496C22.9339 27.2484 22.7205 27.2679 22.5104 27.308C21.8864 27.4119 20.587 28.0008 19.8905 29.4873H18.5321C17.8379 28.0043 16.5368 27.4154 15.9228 27.315C15.7097 27.2732 15.4931 27.2523 15.276 27.2525C14.0585 27.2525 13.0035 27.8788 12.4363 28.2156C12.3608 28.2605 12.2947 28.2996 12.2304 28.3358C11.2319 28.9352 10.1698 29.4225 9.06379 29.7885C7.57498 30.2886 6.01485 30.5449 4.44398 30.5473C3.86544 30.5497 3.28756 30.5081 2.71535 30.4229C2.35161 30.3646 2.00307 30.2975 1.67969 30.2257L3.39545 27.9634C3.76594 28.0182 4.14025 28.043 4.51473 28.0375C5.93226 28.0375 8.54216 27.741 11.4433 25.9638C13.1977 24.8893 14.6432 24.5152 15.8046 24.5152C17.5543 24.5152 18.6601 25.3638 19.2104 25.9405C19.7607 25.3638 20.8671 24.5152 22.6168 24.5152" fill="#DADADA"/>
  <path d="M18.8755 11.9585C19.6158 11.9686 20.3543 12.0359 21.0842 12.1599V9.33498L19.693 8.78635C19.5963 8.74828 19.5133 8.68206 19.4548 8.5963C19.3963 8.51053 19.365 8.40917 19.365 8.30541V7.52915C19.365 7.49723 19.3729 7.46581 19.3879 7.43761C19.4029 7.40942 19.4245 7.3853 19.451 7.36736C19.4774 7.34941 19.5079 7.33819 19.5397 7.33465C19.5714 7.33111 19.6036 7.33536 19.6334 7.34705L32.0712 12.2498C32.1488 12.2802 32.2352 12.2786 32.3116 12.2454C32.388 12.2122 32.448 12.15 32.4785 12.0726C32.509 11.9952 32.5074 11.9089 32.4741 11.8327C32.4408 11.7564 32.3786 11.6965 32.301 11.6661L19.8451 6.75697C19.5339 6.63439 19.1878 6.63439 18.8767 6.75697L6.39906 11.6784C6.25826 11.7338 6.13745 11.8302 6.05234 11.9552C5.96723 12.0801 5.92177 12.2277 5.92188 12.3787V13.4416C5.92193 13.5926 5.96745 13.7401 6.05254 13.865C6.13763 13.9899 6.25836 14.0864 6.39906 14.142L10.8119 15.8813V15.6373C10.8119 14.8599 11.1873 14.1484 11.7908 13.7941C13.8212 12.604 16.2568 11.9264 18.8755 11.9591" fill="#0F1E42"/>
  <path d="M32.3784 13.7895L23.1441 10.1487V12.6724C24.1283 12.9977 25.0719 13.4346 25.9563 13.9745L26.0703 14.0428L26.0282 14.1129C25.1118 13.6346 24.1443 13.2611 23.1441 12.9993V15.3701L22.1119 14.5261L21.0798 15.0135V12.6129C20.5075 12.5467 19.9319 12.5134 19.3558 12.5131C16.8021 12.5131 14.4272 13.1481 12.4471 14.2378C11.8583 14.5617 11.4922 15.2037 11.4922 15.9006V20.7327C11.4922 20.8097 11.509 20.8859 11.5414 20.9558C11.5738 21.0257 11.621 21.0878 11.6798 21.1377C11.7385 21.1877 11.8075 21.2243 11.8818 21.2451C11.9561 21.2658 12.0341 21.2702 12.1103 21.258C14.2541 20.9078 16.7249 20.7088 19.3558 20.7088C21.9868 20.7088 24.4575 20.9084 26.6013 21.258C26.6775 21.2702 26.7555 21.2658 26.8298 21.2451C26.9042 21.2243 26.9731 21.1877 27.0319 21.1377C27.0906 21.0878 27.1379 21.0257 27.1702 20.9558C27.2026 20.8859 27.2194 20.8097 27.2194 20.7327V16.151L32.3784 14.117C32.4117 14.1044 32.4404 14.0819 32.4606 14.0527C32.4808 14.0235 32.4917 13.9888 32.4917 13.9532C32.4917 13.9177 32.4808 13.883 32.4606 13.8538C32.4404 13.8245 32.4117 13.8021 32.3784 13.7895Z" fill="#0F1E42"/>
</svg>
