<svg width="93" height="22" viewBox="0 0 93 22" fill="none" xmlns="http://www.w3.org/2000/svg">
<path d="M7.59364e-05 8.97798C-0.00464764 7.63461 0.351132 6.31448 1.03045 5.15474C1.35844 4.59207 1.75665 4.07322 2.21554 3.61062C2.67207 3.151 3.18762 2.75379 3.74872 2.42937C4.31723 2.10401 4.92499 1.85236 5.55729 1.68047C6.87669 1.3181 8.26966 1.3181 9.58906 1.68047C10.2242 1.85539 10.8342 2.11125 11.4038 2.44172C12.5319 3.09716 13.4698 4.03425 14.1252 5.16091C14.4548 5.72986 14.7116 6.33785 14.8895 6.97063C15.2525 8.288 15.2525 9.67877 14.8895 10.9961C14.7131 11.627 14.4562 12.2326 14.1252 12.7981C13.7984 13.3555 13.4 13.8679 12.9401 14.3222C12.4795 14.7785 11.9634 15.1753 11.4038 15.5034C10.8354 15.8364 10.2251 16.0924 9.58906 16.2647C8.61392 16.5331 7.59482 16.604 6.59179 16.4733C5.58876 16.3426 4.62209 16.0128 3.74872 15.5034C3.18934 15.1765 2.6741 14.7795 2.21554 14.3222C1.75802 13.8658 1.35987 13.3537 1.03045 12.7981C0.69747 12.2343 0.440987 11.6289 0.267726 10.9977C0.0870501 10.3397 -0.0029943 9.66022 7.59364e-05 8.97798ZM3.83536 8.96872C3.83051 9.49213 3.92446 10.0118 4.11229 10.5005C4.28724 10.9585 4.55 11.3781 4.88585 11.7358C5.21948 12.0896 5.62159 12.3722 6.06784 12.5665C6.54501 12.7663 7.05727 12.8692 7.57472 12.8692C8.09217 12.8692 8.60444 12.7663 9.08161 12.5665C9.53038 12.3735 9.93477 12.0908 10.2698 11.7358C10.6056 11.3781 10.8684 10.9585 11.0433 10.5005C11.4125 9.51361 11.4125 8.42691 11.0433 7.44004C10.8692 6.97699 10.6065 6.55219 10.2698 6.1893C9.92467 5.82187 9.50772 5.52899 9.0447 5.32878C8.58167 5.12856 8.08243 5.02526 7.57782 5.02526C7.07321 5.02526 6.57396 5.12856 6.11094 5.32878C5.64791 5.52899 5.23096 5.82187 4.88585 6.1893C4.54915 6.55219 4.28642 6.97699 4.11229 7.44004C3.92533 7.92792 3.83141 8.44639 3.83536 8.96872Z" fill="#0F1E42"/>
<path d="M19.0532 12.3999C19.2265 12.5743 19.4214 12.7259 19.6334 12.8508C19.8251 12.9647 20.0253 13.0638 20.2321 13.1472C20.3966 13.2115 20.5657 13.2631 20.738 13.3016C20.8352 13.3277 20.9347 13.3442 21.0351 13.3511C21.1604 13.3511 21.3213 13.3511 21.5162 13.3372C21.7056 13.3275 21.8934 13.2975 22.0763 13.2476C22.2474 13.2029 22.4061 13.12 22.5404 13.0052C22.6059 12.9455 22.6572 12.8719 22.6907 12.7899C22.7241 12.7079 22.7388 12.6195 22.7338 12.5311C22.7421 12.3768 22.7039 12.2235 22.6239 12.0911C22.5424 11.9741 22.4335 11.8787 22.3068 11.8131C22.1441 11.7283 21.973 11.6605 21.7962 11.6108C21.5951 11.5522 21.3692 11.4827 21.1171 11.4039C20.4328 11.2356 19.7734 10.9792 19.1553 10.6411C18.6907 10.3866 18.2761 10.0502 17.9316 9.64826C17.6437 9.30449 17.4304 8.90492 17.305 8.47474C17.1851 8.04018 17.1253 7.59133 17.1271 7.14062C17.1205 6.62391 17.2327 6.11258 17.455 5.64592C17.6725 5.19636 17.99 4.80235 18.3833 4.494C18.8151 4.15924 19.3057 3.90788 19.8299 3.75283C20.8186 3.47033 21.8591 3.41751 22.8715 3.59842C23.2301 3.66669 23.5796 3.77655 23.9127 3.92577C24.2544 4.08104 24.5782 4.27314 24.8781 4.49864C25.2127 4.75135 25.5262 5.03072 25.8156 5.334C25.9136 5.43513 25.9746 5.56621 25.9889 5.70614C25.9807 5.78029 25.9566 5.8518 25.9181 5.91577C25.8797 5.97973 25.8278 6.03464 25.7661 6.07672C25.5078 6.28672 25.2618 6.49518 25.0266 6.69437C24.7914 6.89356 24.5501 7.12673 24.2995 7.37687C24.2316 7.43725 24.1497 7.47972 24.0612 7.5004C23.9866 7.51923 23.9084 7.51923 23.8338 7.5004C23.759 7.47961 23.6884 7.44619 23.6249 7.40158C23.5576 7.35454 23.4977 7.29783 23.447 7.23327C23.2359 6.99007 22.9611 6.81039 22.6533 6.71444C22.384 6.62923 22.1035 6.58396 21.821 6.5801C21.5528 6.56735 21.286 6.62541 21.0474 6.74842C20.9565 6.79767 20.8824 6.87296 20.8347 6.9646C20.787 7.05624 20.7679 7.16003 20.7798 7.26261C20.7819 7.33935 20.8002 7.41477 20.8335 7.48396C20.8668 7.55314 20.9144 7.61452 20.9732 7.66408C21.0998 7.76634 21.2439 7.84482 21.3986 7.89569C21.573 7.95753 21.752 8.00554 21.9339 8.0393C22.1227 8.07635 22.296 8.1165 22.4538 8.16282C23.0101 8.33766 23.5561 8.54387 24.0891 8.78047C24.5589 8.98767 24.9936 9.26635 25.3778 9.60658C25.7408 9.93216 26.0294 10.3319 26.2241 10.7786C26.4424 11.3047 26.5478 11.8707 26.5335 12.44C26.5405 13.046 26.4037 13.6449 26.1343 14.188C25.8786 14.6953 25.511 15.1383 25.0591 15.4835C24.5731 15.8474 24.024 16.1186 23.4393 16.2833C22.7858 16.4723 22.1084 16.5659 21.428 16.5613C21.0095 16.5603 20.5918 16.5236 20.1795 16.4516C19.7584 16.38 19.3465 16.2625 18.9511 16.1011C18.5518 15.9398 18.1728 15.7325 17.8217 15.4835C17.4595 15.2244 17.1387 14.912 16.8702 14.557C16.7998 14.4694 16.7444 14.3708 16.7062 14.2652C16.6699 14.1664 16.6531 14.0615 16.6567 13.9564C16.659 13.8629 16.679 13.7707 16.7155 13.6846C16.7545 13.6002 16.8141 13.5269 16.8888 13.4715L18.1683 12.1961C18.2207 12.139 18.2869 12.0963 18.3606 12.072C18.4342 12.0476 18.5129 12.0425 18.5891 12.0571C18.7655 12.1387 18.9235 12.2553 19.0532 12.3999Z" fill="#0F1E42"/>
<path d="M29.4118 1.78712C29.4052 1.69926 29.4202 1.61113 29.4556 1.53039C29.4909 1.44965 29.5455 1.37876 29.6145 1.32388C29.7927 1.19943 29.9881 1.10163 30.1947 1.03359L32.4442 0.250719C32.4753 0.244652 32.5069 0.241551 32.5385 0.241455H32.6236C32.8681 0.241455 33.0321 0.312485 33.1141 0.454544C33.2036 0.626865 33.2462 0.819595 33.2378 1.01351L33.2286 3.7327H34.5854C34.6794 3.72877 34.7733 3.74339 34.8617 3.77571C34.9501 3.80804 35.0313 3.85744 35.1006 3.92109C35.171 3.99613 35.225 4.08501 35.2591 4.18205C35.2932 4.27909 35.3066 4.38216 35.2986 4.48468V6.39322C35.3084 6.50271 35.2959 6.61305 35.2618 6.7176C35.2278 6.82215 35.173 6.91875 35.1006 7.0016C35.032 7.06651 34.951 7.11702 34.8625 7.15018C34.7741 7.18333 34.6798 7.19844 34.5854 7.19461H33.227L33.2363 15.5421C33.2437 15.647 33.2281 15.7522 33.1904 15.8504C33.1527 15.9485 33.0939 16.0373 33.0181 16.1103C32.8484 16.2479 32.633 16.3167 32.4148 16.3034H30.1746C29.6661 16.3034 29.4118 16.0496 29.4118 15.5421L29.401 7.19461H28.3815C27.8719 7.19461 27.6172 6.92748 27.6172 6.39322V4.48777C27.6172 3.98645 27.8719 3.73579 28.3815 3.73579H29.401L29.4118 1.78712Z" fill="#0F1E42"/>
<path d="M47.3244 14.8057C46.7503 15.3359 46.0859 15.7594 45.3626 16.0564C44.6323 16.3556 43.85 16.5078 43.0605 16.5042C41.3151 16.5123 39.6346 15.8441 38.3728 14.6404C37.7614 14.0527 37.2702 13.3521 36.9262 12.5775C36.5646 11.7656 36.3821 10.8857 36.3909 9.99727C36.3885 8.87224 36.6694 7.76465 37.2078 6.77624C37.4692 6.30153 37.7888 5.86115 38.1593 5.46529C38.5296 5.0694 38.9516 4.72506 39.414 4.44154C39.8842 4.15516 40.3904 3.9324 40.9193 3.77911C41.4765 3.61896 42.0537 3.53889 42.6335 3.54131C43.1735 3.54188 43.7109 3.61723 44.2301 3.76521C44.7386 3.90906 45.2267 4.1166 45.6829 4.38286C46.1328 4.64762 46.5485 4.96656 46.9206 5.3325C47.2915 5.69662 47.6176 6.10352 47.8921 6.54462C48.1628 6.98326 48.374 7.45575 48.5203 7.94977C48.6697 8.45086 48.7447 8.97108 48.7431 9.49389C48.7431 9.83668 48.743 10.1115 48.7291 10.3339C48.7282 10.518 48.6745 10.698 48.5744 10.8527C48.4581 10.996 48.2928 11.0911 48.1103 11.1198C47.7982 11.1777 47.4808 11.2025 47.1635 11.194H40.0375C40.0871 11.5732 40.2242 11.9359 40.4382 12.2532C40.625 12.5219 40.8626 12.7516 41.1375 12.9295C41.3961 13.0955 41.6805 13.2176 41.9791 13.2909C42.2548 13.3608 42.5378 13.3976 42.8223 13.4005C43.0685 13.3997 43.3142 13.3749 43.5556 13.3264C43.8028 13.2776 44.0463 13.2116 44.2843 13.1287C44.5063 13.0507 44.7215 12.9546 44.9279 12.8415C45.0971 12.7489 45.2532 12.6342 45.392 12.5003C45.4778 12.4285 45.5693 12.3639 45.6659 12.3073C45.7429 12.261 45.832 12.2386 45.9218 12.243C46.0116 12.2474 46.0981 12.2784 46.1702 12.332C46.279 12.4072 46.3801 12.4931 46.4719 12.5883L47.5239 13.7757C47.5848 13.8436 47.6316 13.9229 47.6616 14.0089C47.6816 14.0776 47.6915 14.1489 47.691 14.2204C47.6943 14.3431 47.6562 14.4633 47.5827 14.5617C47.509 14.6552 47.422 14.7374 47.3244 14.8057ZM42.5577 6.56624C42.3007 6.56674 42.0465 6.61927 41.8105 6.72066C41.5661 6.82556 41.3376 6.96379 41.1313 7.13139C40.9194 7.30321 40.7284 7.4991 40.5619 7.71507C40.4008 7.92014 40.2628 8.14228 40.1504 8.37749H45.2203C45.0869 8.13012 44.9364 7.89227 44.7701 7.66566C44.6114 7.44855 44.4246 7.25332 44.2147 7.08507C44.0006 6.91697 43.7594 6.78643 43.5014 6.69904C43.1986 6.6026 42.8817 6.5572 42.5639 6.5647L42.5577 6.56624Z" fill="#0F1E42"/>
<path d="M59.7881 15.0711C59.5962 15.2597 59.3926 15.4361 59.1785 15.5992C58.9448 15.7776 58.6958 15.9352 58.4344 16.0702C58.1595 16.2112 57.8707 16.3235 57.5726 16.4052C57.2548 16.4932 56.9262 16.5368 56.5964 16.5349C55.7448 16.5432 54.9011 16.3711 54.121 16.03C53.3811 15.708 52.7146 15.2388 52.1624 14.6511C51.6071 14.0519 51.1727 13.3515 50.8829 12.5882C50.2682 10.9408 50.2682 9.12762 50.8829 7.48024C51.1728 6.71874 51.6066 6.01996 52.1608 5.42194C52.7106 4.8353 53.3751 4.36756 54.1133 4.04768C54.8941 3.70952 55.7375 3.53906 56.5887 3.54739C56.9231 3.54511 57.2569 3.57667 57.585 3.64157C57.869 3.69987 58.1453 3.79108 58.4081 3.91334C58.6512 4.02962 58.8805 4.17256 59.0919 4.33951C59.3012 4.5063 59.4982 4.68795 59.6813 4.88304V0.754075C59.6754 0.557929 59.7446 0.366895 59.8747 0.219808C59.9494 0.143564 60.0399 0.0845649 60.1399 0.0469521C60.2398 0.00933927 60.3468 -0.00597092 60.4533 0.00209129H62.6827C62.7767 0.00352434 62.8695 0.0223717 62.9566 0.0576772C63.0519 0.0938592 63.1404 0.146086 63.218 0.212089C63.2978 0.277669 63.3635 0.35853 63.4114 0.449889C63.462 0.544884 63.4875 0.651153 63.4857 0.758712V15.5452C63.4857 16.0537 63.218 16.3074 62.6827 16.3064H60.7488C60.6434 16.3119 60.5379 16.295 60.4394 16.257C60.3676 16.225 60.3048 16.1757 60.2569 16.1134C60.2013 16.0415 60.1565 15.9619 60.1238 15.8771C60.0836 15.7814 60.0341 15.6702 59.9691 15.5452L59.7881 15.0711ZM53.9911 10.0358C53.9876 10.4505 54.0561 10.8627 54.1937 11.2541C54.3192 11.6179 54.5165 11.9529 54.7739 12.2392C55.0278 12.5182 55.3363 12.7421 55.6805 12.897C56.0498 13.0616 56.4504 13.1443 56.8548 13.1394C57.2641 13.1422 57.6699 13.0645 58.0491 12.9109C58.4118 12.7662 58.7432 12.5534 59.0254 12.284C59.305 12.0131 59.5316 11.6926 59.6937 11.339C59.8636 10.9721 59.9593 10.5754 59.9753 10.1716V10.0327C59.9768 9.61905 59.8964 9.2092 59.7386 8.82672C59.5848 8.45202 59.3612 8.10986 59.0795 7.81841C58.7969 7.52674 58.4601 7.29283 58.0878 7.12973C57.6978 6.95911 57.2759 6.87331 56.8501 6.87804C56.4447 6.87244 56.0433 6.95849 55.6759 7.12973C55.3286 7.29319 55.0197 7.52785 54.7693 7.81841C54.5131 8.1144 54.3161 8.45669 54.1891 8.82672C54.0539 9.21536 53.9869 9.62437 53.9911 10.0358Z" fill="#0F1E42"/>
<path d="M69.9348 5.06686C70.0811 4.86085 70.2561 4.67679 70.4546 4.52025C70.6889 4.3298 70.945 4.16757 71.2173 4.03694C71.5231 3.88883 71.8436 3.77292 72.1734 3.69106C72.5368 3.60128 72.9099 3.55667 73.2843 3.55825C73.9628 3.54236 74.6348 3.69295 75.2414 3.99679C75.7838 4.27863 76.2523 4.68379 76.609 5.17958C76.9818 5.70907 77.2535 6.30269 77.4104 6.93061C77.5901 7.62971 77.6785 8.34904 77.6734 9.07076V15.5483C77.6902 15.75 77.6354 15.9511 77.5187 16.1166C77.4517 16.1855 77.3701 16.2386 77.2799 16.272C77.1897 16.3054 77.0932 16.3182 76.9973 16.3096H74.7076C74.4229 16.3096 74.228 16.2617 74.1228 16.166C74.0161 16.0718 73.9681 15.8849 73.9681 15.607V9.06767C73.9729 8.79571 73.9202 8.52578 73.8134 8.27554C73.7077 8.03692 73.5575 7.82051 73.3709 7.63782C72.9864 7.26516 72.4711 7.05735 71.9352 7.05878C71.6948 7.05916 71.4569 7.10801 71.2359 7.20238C71.006 7.29802 70.7961 7.43576 70.6171 7.60848C70.4274 7.78991 70.2704 8.00248 70.1529 8.23694C70.0287 8.49031 69.9566 8.76596 69.941 9.0476V15.5777C69.9405 15.6929 69.9184 15.8071 69.876 15.9143C69.8395 16.018 69.772 16.108 69.6826 16.1721C69.6074 16.2198 69.5255 16.2563 69.4397 16.2802C69.3537 16.3013 69.2653 16.3112 69.1767 16.3096H66.9318C66.8261 16.3263 66.7179 16.3185 66.6156 16.2868C66.5134 16.255 66.4198 16.2003 66.3422 16.1267C66.2646 16.0531 66.205 15.9626 66.168 15.8623C66.131 15.762 66.1176 15.6546 66.1289 15.5483V0.764951C66.1202 0.565931 66.1877 0.371052 66.3176 0.219873C66.4003 0.143656 66.4981 0.085805 66.6048 0.0501372C66.7115 0.0144695 66.8245 0.00180191 66.9365 0.0129668H69.1751C69.3543 0.0201073 69.5286 0.0732948 69.6811 0.167379C69.7705 0.231504 69.838 0.321526 69.8744 0.425244C69.9154 0.525883 69.9374 0.633185 69.9394 0.741786L69.9348 5.06686Z" fill="#0F1E42"/>
<path d="M79.2891 4.6946C79.2377 4.58926 79.2109 4.47362 79.2109 4.35644C79.2109 4.23926 79.2377 4.12362 79.2891 4.01828C79.3922 3.8299 79.6186 3.7357 79.9683 3.7357H82.4158C82.4903 3.73306 82.5645 3.74537 82.6341 3.77189C82.7038 3.79841 82.7674 3.83862 82.8211 3.89011C82.9297 3.99661 83.0114 4.12734 83.0594 4.27151L85.8643 12.233L88.6089 4.27151C88.6523 4.10322 88.7502 3.95396 88.8873 3.84688C89.0284 3.76684 89.1895 3.7288 89.3515 3.73725H91.898C92.0471 3.73089 92.1958 3.75615 92.3343 3.81136C92.4283 3.851 92.5066 3.92048 92.5571 4.00901C92.5995 4.09511 92.6151 4.19191 92.6019 4.28695C92.5886 4.39293 92.5616 4.49674 92.5215 4.59578L91.6969 6.62166L90.7686 8.91621C90.4479 9.71195 90.1225 10.52 89.7924 11.3405C89.4624 12.1609 89.14 12.9669 88.8255 13.7586C88.516 14.5491 88.2138 15.3089 87.9189 16.0377C87.6239 16.7665 87.3583 17.4356 87.1221 18.045C86.8807 18.6544 86.6709 19.1903 86.4924 19.6525C86.314 20.1147 86.1784 20.4708 86.0855 20.721L86.1149 20.6716C86.0769 20.8364 85.9908 20.9864 85.8674 21.1024C85.7475 21.2083 85.5911 21.2636 85.4311 21.2568H83.1445C82.8474 21.2568 82.6432 21.1997 82.5349 21.0838C82.4168 20.9413 82.3581 20.7589 82.3709 20.5743C82.3678 20.5066 82.38 20.439 82.4065 20.3766C82.42 20.3447 82.4382 20.315 82.4607 20.2886L84.017 16.2523L79.2891 4.6946Z" fill="#0F1E42"/>
</svg>
