<svg width="14" viewBox="0 0 14 15" fill="none" xmlns="http://www.w3.org/2000/svg">
  <path class="stroke" d="M1 1.16211L13 13.1621" stroke="current" stroke-width="2" stroke-linecap="round"/>
  <path class="stroke" d="M13 1.16211L1 13.1621" stroke="current" stroke-width="2" stroke-linecap="round"/>
</svg>
