<svg width="20" height="21" viewBox="0 0 20 21" fill="none" xmlns="http://www.w3.org/2000/svg">
<path d="M4.16406 5.5C4.16406 4.11929 5.28335 3 6.66406 3H10.9737C11.4157 3 11.8397 3.17559 12.1522 3.48816L15.3426 6.67851C15.6551 6.99107 15.8307 7.415 15.8307 7.85702V15.5C15.8307 16.8807 14.7114 18 13.3307 18H6.66406C5.28335 18 4.16406 16.8807 4.16406 15.5V5.5Z" stroke="black" stroke-width="1.5"/>
<path d="M10.8359 3V4.66667C10.8359 6.50762 12.3283 8 14.1693 8H15.8359" stroke="black" stroke-width="1.5"/>
</svg>
