<svg width="24" viewBox="0 0 24 25" fill="none" xmlns="http://www.w3.org/2000/svg">
  <path class="stroke" d="M17 16.5375L21 12.4045L17 8.27148" stroke="current" stroke-width="2" stroke-linecap="round" stroke-linejoin="round"/>
  <path class="stroke" d="M21 12.4043L9 12.4043" stroke="current" stroke-width="2" stroke-linecap="round" stroke-linejoin="round"/>
  <path class="stroke" d="M11 19.6374L6 19.6374C4.34315 19.6374 3 18.2496 3 16.5376L3 8.27163C3 6.55968 4.34315 5.17187 6 5.17187L11 5.17188" stroke="current" stroke-width="2" stroke-linecap="round"/>
</svg>
