<svg width="32" height="32" viewBox="0 0 32 32" fill="none" xmlns="http://www.w3.org/2000/svg">
<path d="M22.3928 10.281C22.6693 11.5687 22.6693 13.294 22.6693 15.9997C22.6693 18.7046 22.6693 20.4297 22.393 21.7173M22.3928 10.281C22.2877 9.79178 22.1427 9.36572 21.9426 8.97307C21.3035 7.71866 20.2836 6.69879 19.0292 6.05963C17.6031 5.33301 15.7363 5.33301 12.0026 5.33301C8.26892 5.33301 6.40208 5.33301 4.976 6.05963C3.72159 6.69879 2.70172 7.71866 2.06256 8.97307C1.33594 10.3991 1.33594 12.266 1.33594 15.9997C1.33594 19.7334 1.33594 21.6002 2.06256 23.0263C2.70172 24.2807 3.72159 25.3006 4.976 25.9397C6.40208 26.6663 8.26892 26.6663 12.0026 26.6663C15.7363 26.6663 17.6031 26.6663 19.0292 25.9397C20.2836 25.3006 21.3035 24.2807 21.9426 23.0263C22.1429 22.6333 22.2879 22.2069 22.393 21.7173M22.3928 10.281L22.6693 10.162L23.2004 9.92992C26.5709 8.45716 28.2561 7.72078 29.4627 8.51028C30.6693 9.29979 30.6693 11.1389 30.6693 14.8171V17.1823C30.6693 20.8605 30.6693 22.6996 29.4627 23.4891C28.2561 24.2786 26.5709 23.5422 23.2004 22.0694L22.6693 21.8373L22.393 21.7173M8.0026 15.9997C8.0026 13.6187 8.0026 12.4281 8.47168 11.7399C8.88084 11.1396 9.50973 10.7526 10.202 10.675C10.9957 10.5861 11.9629 11.1814 13.8973 12.3719C15.8318 13.5624 16.799 14.1576 17.1236 14.9348C17.4067 15.6126 17.4067 16.3867 17.1236 17.0646C16.799 17.8417 15.8318 18.437 13.8973 19.6275C11.9629 20.818 10.9957 21.4132 10.202 21.3243C9.50973 21.2468 8.88084 20.8597 8.47168 20.2594C8.0026 19.5712 8.0026 18.3807 8.0026 15.9997Z" stroke="#0F1E42" stroke-width="2"/>
</svg>
