<svg width="24" viewBox="0 0 24 25" fill="none" xmlns="http://www.w3.org/2000/svg">
  <path class="stroke" d="M3 7.33301C3 5.12387 4.79086 3.33301 7 3.33301H17C19.2091 3.33301 21 5.12387 21 7.33301V17.333C21 19.5421 19.2091 21.333 17 21.333H7C4.79086 21.333 3 19.5421 3 17.333V7.33301Z" stroke="current" stroke-width="2"/>
  <path class="stroke" d="M11.5691 8.04492C11.7634 7.72201 12.2316 7.72201 12.4259 8.04492L13.5341 9.88631C13.6039 10.0023 13.7178 10.0851 13.8497 10.1156L15.9434 10.6005C16.3105 10.6855 16.4552 11.1308 16.2082 11.4154L14.7993 13.0383C14.7106 13.1406 14.6671 13.2745 14.6788 13.4093L14.8646 15.5504C14.8972 15.9259 14.5184 16.2011 14.1714 16.054L12.1926 15.2157C12.0679 15.1629 11.9271 15.1629 11.8025 15.2157L9.82359 16.054C9.47657 16.2011 9.09783 15.9259 9.13042 15.5504L9.31623 13.4093C9.32794 13.2745 9.28444 13.1406 9.19569 13.0383L7.78686 11.4154C7.53981 11.1308 7.68447 10.6855 8.05163 10.6005L10.1453 10.1156C10.2772 10.0851 10.3911 10.0023 10.4609 9.88631L11.5691 8.04492Z" stroke="current" stroke-width="2"/>
</svg>
